C:\Users\jeyan\eclipse-workspace\mavenCPSATonlineJUL\src\test\java\day1\Helloworld.java
C:\Users\jeyan\eclipse-workspace\mavenCPSATonlineJUL\src\test\java\jUnit_excercises\package-info.java
C:\Users\jeyan\eclipse-workspace\mavenCPSATonlineJUL\src\test\java\jUnit_excercises\Ex03_Annauniv_JU.java
C:\Users\jeyan\eclipse-workspace\mavenCPSATonlineJUL\src\test\java\day2\Ex01_qnBank.java
C:\Users\jeyan\eclipse-workspace\mavenCPSATonlineJUL\src\test\java\day3\Ex02B_WindowSwitching.java
C:\Users\jeyan\eclipse-workspace\mavenCPSATonlineJUL\src\test\java\testNG_excercises\Ex11_JQueryEx.java
C:\Users\jeyan\eclipse-workspace\mavenCPSATonlineJUL\src\test\java\day3\Sample_JU.java
C:\Users\jeyan\eclipse-workspace\mavenCPSATonlineJUL\src\test\java\day1\Ex_Google.java
C:\Users\jeyan\eclipse-workspace\mavenCPSATonlineJUL\src\test\java\day2\EX01_GoogleNavigation.java
C:\Users\jeyan\eclipse-workspace\mavenCPSATonlineJUL\src\test\java\day3\Ex04_ExcersiseonAlerts.java
C:\Users\jeyan\eclipse-workspace\mavenCPSATonlineJUL\src\test\java\testNG_excercises\Ex04_ExcerciseonAlerts_NG.java
C:\Users\jeyan\eclipse-workspace\mavenCPSATonlineJUL\src\test\java\testNG_excercises\Ex06_SocialMediaSearch.java
C:\Users\jeyan\eclipse-workspace\mavenCPSATonlineJUL\src\test\java\day2\EX01A_wikipediaNavigation.java
C:\Users\jeyan\eclipse-workspace\mavenCPSATonlineJUL\src\test\java\day4\Ex07_IMBD_NG_Files.java
C:\Users\jeyan\eclipse-workspace\mavenCPSATonlineJUL\src\test\java\jUnit_excercises\Ex01_Google.java
C:\Users\jeyan\eclipse-workspace\mavenCPSATonlineJUL\src\test\java\day3\Ex07_IMDBExcercise.java
C:\Users\jeyan\eclipse-workspace\mavenCPSATonlineJUL\src\test\java\day3\package-info.java
C:\Users\jeyan\eclipse-workspace\mavenCPSATonlineJUL\src\test\java\day3\Ex01_Google_JU.java
C:\Users\jeyan\eclipse-workspace\mavenCPSATonlineJUL\src\test\java\jUnit_excercises\Ex01_wikipediaSearch.java
C:\Users\jeyan\eclipse-workspace\mavenCPSATonlineJUL\src\test\java\day5\Ex04_Alerts_NG.java
C:\Users\jeyan\eclipse-workspace\mavenCPSATonlineJUL\src\test\java\jUnit_excercises\AutocompletetestTest.java
C:\Users\jeyan\eclipse-workspace\mavenCPSATonlineJUL\src\test\java\jUnit_excercises\Ex01_GoogleNavigation_ju.java
C:\Users\jeyan\eclipse-workspace\mavenCPSATonlineJUL\src\test\java\day2\ListDemo.java
C:\Users\jeyan\eclipse-workspace\mavenCPSATonlineJUL\src\test\java\day4\package-info.java
C:\Users\jeyan\eclipse-workspace\mavenCPSATonlineJUL\src\test\java\day2\Ex04_ExcersiseonAlerts.java
C:\Users\jeyan\eclipse-workspace\mavenCPSATonlineJUL\src\test\java\jUnit_excercises\Ex01A_wikipediaNavigation_ju.java
C:\Users\jeyan\eclipse-workspace\mavenCPSATonlineJUL\src\test\java\utils\XLDataReaders.java
C:\Users\jeyan\eclipse-workspace\mavenCPSATonlineJUL\src\test\java\day5\Ex04_ExcersiseonAlerts.java
C:\Users\jeyan\eclipse-workspace\mavenCPSATonlineJUL\src\test\java\day2\package-info.java
C:\Users\jeyan\eclipse-workspace\mavenCPSATonlineJUL\src\test\java\day4\Ex07_IMDB.java
C:\Users\jeyan\eclipse-workspace\mavenCPSATonlineJUL\src\test\java\day5\package-info.java
C:\Users\jeyan\eclipse-workspace\mavenCPSATonlineJUL\src\test\java\day4\Ex07_IMDB_NG.java
C:\Users\jeyan\eclipse-workspace\mavenCPSATonlineJUL\src\test\java\day1\package-info.java
C:\Users\jeyan\eclipse-workspace\mavenCPSATonlineJUL\src\test\java\day2\AnnaunivTest.java
C:\Users\jeyan\eclipse-workspace\mavenCPSATonlineJUL\src\test\java\testNG_excercises\Ex09_SampleDropDown_NG.java
C:\Users\jeyan\eclipse-workspace\mavenCPSATonlineJUL\src\test\java\day3\Ex03_AnnaUniv.java
C:\Users\jeyan\eclipse-workspace\mavenCPSATonlineJUL\src\test\java\testNG_excercises\package-info.java
C:\Users\jeyan\eclipse-workspace\mavenCPSATonlineJUL\src\test\java\utils\package-info.java
C:\Users\jeyan\eclipse-workspace\mavenCPSATonlineJUL\src\test\java\day2\Ex06_SocialMedia.java
C:\Users\jeyan\eclipse-workspace\mavenCPSATonlineJUL\src\test\java\day2\Ex03_AnnaUniv.java
C:\Users\jeyan\eclipse-workspace\mavenCPSATonlineJUL\src\test\java\day5\Ex09_SampleDropDown_NG.java
C:\Users\jeyan\eclipse-workspace\mavenCPSATonlineJUL\src\test\java\utils\HelperFunctions.java
